Read and validate a table with genes (that should be tested in overrepresentation-analysis) for compatibility with this R package#' — read_validate_genelist • goatea
…
7227 = Fruit fly (Drosophila melanogaster) (org.Dm.eg.db)

6239 = Worm (Caenorhabditis elegans) (org.Ce.eg.db)

    Value

    tibble dataframe with columns: symbol (string), gene (string as integer ID), pvalue (numeric), effestsize (numeric)

    Examples

file_path <- system.file("extdata", "example_genelist.csv", package = "goatea")
read_validate_genelist(file = file_path)
#> Checking file format...
#> # A tibble: 100 × 5
#>    symbol   gene pvalue effectsize signif
#>    <chr>   <int>  <dbl>      <dbl> <lgl> 
#>  1 gene_29 14969 0.0783       -4.9 FALSE 
#>  2 gene_75 12070 0.845        -4.9 FALSE 
#>  3 gene_76 10534 0.0121        4.8 TRUE  
#>  4 gene_12 15042 0.282         4.8 FALSE 
#>  5 gene_68 14654 0.0203       -4.8 TRUE  
#>  6 gene_98 12937 0.791        -4.8 FALSE 
#>  7 gene_13 17523 0.201         4.7 FALSE 
#>  8 gene_35 15743 0.471         4.7 FALSE 
#>  9 gene_69 19501 0.0133       -4.7 TRUE  
#> 10 gene_65 19908 0.306        -4.6 FALSE 
#> # ℹ 90 more rows
…
